{
  "schemaVersion": 1,
  "id": "pocketmobs",
  "version": "${version}",
  "name": "Pocket Mobs",
  "description": "Battle with mobs using Pokémon Showdown",
  "authors": ["leo vriska <leo@60228.dev>"],
  "contact": {
    "repo": "https://gitlab.com/vriska/pocketmobs"
  },
  "license": "MPL-2.0",
  "icon": "assets/pocketmobs/icon.png",
  "environment": "*",
  "entrypoints": {
    "client": [
      "dev.vriska.pocketmobs.client.PocketMobsClient"
    ],
    "main": [
      "dev.vriska.pocketmobs.PocketMobs"
    ]
  },
  "mixins": [
    "pocketmobs.mixins.json"
  ],
  "depends": {
    "fabricloader": ">=0.5.11",
    "fabric": "*",
    "minecraft": "1.21",
    "lib39-core": "*",
    "lib39-dessicant": "*"
  }
}
